Project1_kl2993
…
Overall Words Frequency

tidy_words %>%
  count(word, sort = TRUE)

## # A tibble: 9,263 x 2
##    word           n
##    <chr>      <int>
##  1 government   575
##  2 people       543
##  3 country      290
##  4 nation       287
##  5 world        277
##  6 citizens     231
##  7 power        231
##  8 peace        228
##  9 public       224
## 10 time         211
## # ... with 9,253 more rows
…
We can see that the most common words in different parties are slightly different, then we can use ti-dif to show the result clearer.

Find tf-idf within party

tf_idf <- words_by_party %>%
  bind_tf_idf(word, Party, n) %>%
  arrange(desc(tf_idf))

tf_idf

## # A tibble: 16,511 x 6
##    Party      word             n      tf   idf  tf_idf
##    <fct>      <chr>        <int>   <dbl> <dbl>   <dbl>
##  1 Fedralist  pleasing         4 0.00465 0.916 0.00426
##  2 Fedralist  amiable          2 0.00232 1.61  0.00374
##  3 Fedralist  habitual         2 0.00232 1.61  0.00374
##  4 Whig       roman            7 0.00208 1.61  0.00334
##  5 Fedralist  houses           3 0.00348 0.916 0.00319
##  6 Fedralist  legislatures     3 0.00348 0.916 0.00319
##  7 Fedralist  esteem           2 0.00232 0.916 0.00213
##  8 Fedralist  preference       2 0.00232 0.916 0.00213
##  9 Democratic americans       35 0.00222 0.916 0.00204
## 10 Whig       aristocracy      4 0.00119 1.61  0.00191
## # ... with 16,501 more rows
…
Calculate the pairwise correlation of word frequencies within each party to the similarity of their speech contents.

party_cors <- words_by_party %>%
  pairwise_cor(Party, word, n, sort = TRUE)

party_cors

## # A tibble: 30 x 3
##    item1                       item2                       correlation
##    <fct>                       <fct>                             <dbl>
##  1 Democratic                  Republican                        0.887
##  2 Republican                  Democratic                        0.887
##  3 Democratic-Republican Party Democratic                        0.742
##  4 Democratic                  Democratic-Republican Party       0.742
##  5 Democratic-Republican Party Republican                        0.694
##  6 Republican                  Democratic-Republican Party       0.694
##  7 Whig                        Democratic                        0.677
##  8 Democratic                  Whig                              0.677
##  9 Fedralist                   Democratic                        0.653
## 10 Democratic                  Fedralist                         0.653
## # ... with 20 more rows
…
contributions <- tidy_words %>%
  inner_join(get_sentiments("afinn"), by = "word") %>%
  group_by(word) %>%
  summarize(occurences = n(),
            contribution = sum(score))

contributions

## # A tibble: 1,029 x 3
##    word      occurences contribution
##    <chr>          <int>        <int>
##  1 abandon            8          -16
##  2 abandoned          5          -10
##  3 abilities          4            8
##  4 ability           28           56
##  5 absorbed           1            1
##  6 abuse              6          -18
##  7 abused             2           -6
##  8 abuses            13          -39
##  9 accept            24           24
## 10 accepted          11           11
## # ... with 1,019 more rows
…
top_sentiment_words <- words_by_party %>%
  inner_join(get_sentiments("afinn"), by = "word") %>%
  mutate(contribution = score * n / sum(n))

top_sentiment_words

## # A tibble: 2,202 x 5
##    Party      word        n score contribution
##    <fct>      <chr>   <int> <int>        <dbl>
##  1 Republican peace     130     2      0.0318 
##  2 Republican freedom   117     2      0.0287 
##  3 Republican free       91     1      0.0111 
##  4 Republican war        80    -2     -0.0196 
##  5 Republican united     79     1      0.00968
##  6 Republican justice    69     2      0.0169 
##  7 Republican hope       68     2      0.0167 
##  8 Democratic spirit     61     1      0.00747
##  9 Republican god        58     1      0.00710
## 10 Democratic united     56     1      0.00686
## # ... with 2,192 more rows
…
Find tf-idf within Term1 and Term2

tf_idf_term <- words_by_term %>%
  bind_tf_idf(word, Term, n) %>%
  arrange(desc(tf_idf))

tf_idf_term

## # A tibble: 12,678 x 6
##     Term word               n      tf   idf  tf_idf
##    <int> <chr>          <int>   <dbl> <dbl>   <dbl>
##  1     4 learned            5 0.0272  0.288 0.00782
##  2     4 peace              5 0.0272  0.288 0.00782
##  3     4 mistakes           2 0.0109  0.693 0.00753
##  4     4 trend              2 0.0109  0.693 0.00753
##  5     4 upward             2 0.0109  0.693 0.00753
##  6     4 anguished          1 0.00543 1.39  0.00753
##  7     4 brief.we           1 0.00543 1.39  0.00753
##  8     4 community.we       1 0.00543 1.39  0.00753
##  9     4 conviction.the     1 0.00543 1.39  0.00753
## 10     4 democracy.if       1 0.00543 1.39  0.00753
## # ... with 12,668 more rows
…
Find words contributed the most within each term

top_sentiment_term <- words_by_term %>%
  inner_join(get_sentiments("afinn"), by = "word") %>%
  mutate(contribution = score * n / sum(n))

top_sentiment_term

## # A tibble: 1,581 x 5
##     Term word        n score contribution
##    <int> <chr>   <int> <int>        <dbl>
##  1     1 peace     147     2       0.0360
##  2     1 united    133     1       0.0163
##  3     1 free      131     1       0.0160
##  4     1 war       103    -2      -0.0252
##  5     1 freedom    98     2       0.0240
##  6     1 justice    96     2       0.0235
##  7     1 spirit     96     1       0.0118
##  8     1 hope       84     2       0.0206
##  9     2 peace      76     2       0.0186
## 10     2 freedom    69     2       0.0169
## # ... with 1,571 more rows
…
